<?xml version="1.0" standalone="no"?>
<!DOCTYPE svg PUBLIC "-//W3C//DTD SVG 20010904//EN"
 "http://www.w3.org/TR/2001/REC-SVG-20010904/DTD/svg10.dtd">
<svg version="1.0" xmlns="http://www.w3.org/2000/svg"
 width="276.000000pt" height="183.000000pt" viewBox="0 0 276.000000 183.000000"
 preserveAspectRatio="xMidYMid meet">

<g transform="translate(0.000000,183.000000) scale(0.100000,-0.100000)"
fill="#000000" stroke="none">
<path d="M220 1763 c-105 -112 -125 -180 -110 -373 l5 -64 -57 -14 -58 -14 0
-99 c0 -92 1 -99 20 -99 11 0 20 -4 20 -9 0 -5 -9 -11 -20 -14 -17 -4 -20 -14
-20 -57 l0 -52 87 7 c78 6 96 11 155 46 143 84 279 122 480 135 108 7 278 -7
380 -31 32 -7 58 -11 58 -9 0 3 -7 19 -16 36 -24 45 -15 178 15 236 19 37 69
94 121 137 26 21 134 81 170 94 193 69 542 95 774 57 157 -26 362 -101 468
-173 24 -16 49 -33 56 -37 9 -6 12 33 12 178 l0 186 -569 0 -570 0 -20 -29
c-12 -16 -21 -34 -21 -39 0 -19 -122 -104 -156 -109 -35 -6 -44 -17 -21 -26 6
-3 -1 -6 -16 -6 -28 -1 -89 -29 -95 -43 -2 -5 -17 -8 -33 -8 -19 0 -29 -5 -29
-15 0 -8 -9 -15 -19 -15 -11 0 -32 -11 -47 -25 -15 -14 -31 -25 -36 -25 -5 0
-6 -4 -3 -10 3 -5 -1 -10 -9 -10 -9 0 -21 -9 -28 -20 -7 -11 -18 -20 -25 -20
-7 0 -16 -6 -20 -13 -4 -7 -34 -20 -65 -30 -32 -10 -60 -22 -63 -27 -4 -6 -15
-10 -25 -10 -11 0 -49 -18 -85 -40 -36 -22 -76 -40 -89 -40 -13 0 -29 -7 -37
-16 -7 -8 -21 -13 -31 -11 -28 8 -168 -30 -168 -45 0 -4 -10 -8 -22 -8 -17 0
-19 -3 -9 -9 11 -7 9 -10 -9 -16 -15 -5 -25 -2 -31 6 -7 11 -9 10 -9 -3 0 -27
-29 -21 -40 7 -5 14 -15 27 -22 29 -7 2 -35 10 -61 17 -39 10 -48 15 -44 31 4
12 0 18 -12 18 -24 0 -46 69 -46 141 1 72 42 154 115 229 55 55 116 110 124
110 4 0 107 68 115 76 2 2 -52 4 -121 4 l-126 0 -62 -67z"/>
<path d="M1810 1479 c0 -12 -8 -23 -20 -26 -11 -3 -20 -9 -20 -14 0 -5 -8 -9
-18 -9 -10 0 -27 -7 -38 -15 -10 -8 -29 -15 -41 -15 -12 0 -26 -8 -32 -17 -8
-15 -12 -16 -35 -3 -14 7 -26 22 -26 32 0 25 -17 23 -25 -3 -4 -13 0 -27 11
-40 17 -18 16 -19 -22 -19 -44 0 -73 -13 -55 -24 6 -4 20 -4 31 -1 16 5 20 2
20 -14 0 -25 -18 -27 -88 -6 -39 12 -57 13 -72 5 -24 -13 -24 -17 -5 -50 19
-33 19 -54 0 -46 -13 5 -19 -5 -17 -25 1 -4 -8 -5 -18 -2 -16 4 -19 2 -14 -11
3 -9 10 -16 15 -16 4 0 6 -7 3 -15 -4 -9 -14 -14 -23 -13 -12 2 -16 -4 -14
-24 1 -20 -3 -28 -15 -29 -9 0 8 -13 38 -28 105 -54 120 -62 125 -71 3 -5 12
-7 20 -3 8 3 15 0 15 -7 0 -7 21 -36 48 -64 26 -29 56 -70 67 -91 18 -34 28
-41 95 -62 120 -39 183 -55 218 -55 17 0 35 -4 38 -9 10 -17 -45 -9 -182 26
-75 19 -139 33 -142 30 -3 -2 4 -7 14 -11 10 -3 30 -10 44 -14 132 -45 340
-78 500 -80 38 -1 42 -2 26 -12 -13 -7 -55 -9 -130 -4 -61 4 -120 7 -131 7
-39 -1 -191 32 -252 54 l-63 23 0 -24 c0 -28 -61 -220 -90 -287 -11 -25 -36
-62 -55 -83 -19 -22 -35 -42 -35 -46 0 -15 -20 -8 -20 7 0 8 -9 15 -19 15 -11
0 -23 5 -27 11 -3 6 -16 8 -28 4 -11 -4 -41 -11 -66 -16 -25 -4 -79 -15 -120
-24 -98 -19 -295 -48 -342 -49 -21 0 -38 -4 -38 -7 0 -4 -23 -10 -51 -14 -43
-6 -54 -4 -73 14 -15 14 -35 21 -62 21 -36 0 -44 -5 -78 -50 -21 -27 -42 -50
-47 -50 -18 0 -39 47 -39 87 0 50 -20 73 -61 73 -23 0 -34 -7 -47 -30 -29 -51
-95 -30 -105 32 -17 100 -30 120 -79 116 -30 -3 -35 1 -55 42 -15 29 -29 89
-40 170 -15 116 -15 128 0 190 10 36 17 68 17 73 0 14 -19 7 -39 -14 -11 -12
-24 -18 -30 -14 -8 4 -11 -119 -11 -424 l0 -431 1000 0 c882 0 1000 2 1000 15
0 8 5 15 10 15 6 0 13 -7 16 -15 5 -13 56 -15 370 -15 l364 0 0 376 0 375 -31
-23 c-52 -39 -76 -52 -41 -24 18 15 30 31 27 36 -3 5 0 12 6 16 8 4 9 3 5 -4
-4 -7 -3 -12 1 -12 15 0 33 23 33 41 0 16 -9 13 -67 -15 -80 -39 -143 -60
-236 -80 -95 -19 -75 -7 32 20 49 12 113 34 143 49 51 25 56 31 88 103 32 73
34 83 33 192 0 63 -3 130 -8 148 l-8 34 -16 -34 -16 -33 -3 34 c-2 19 2 37 9
41 19 12 2 42 -20 35 -12 -3 -21 0 -25 10 -3 9 -20 23 -38 31 -74 34 -79 39
-61 56 40 41 -28 37 -87 -4 -30 -22 -50 -23 -50 -4 0 11 -10 13 -39 9 -34 -5
-41 -2 -52 18 -7 13 -12 36 -11 52 2 28 -22 40 -31 15 -3 -9 -13 -6 -35 10
-17 12 -42 23 -54 25 -20 2 -23 -2 -20 -31 1 -22 -3 -35 -13 -38 -21 -8 -19
-26 6 -53 16 -17 18 -25 9 -35 -11 -14 -46 -11 -56 5 -3 5 2 6 10 3 11 -4 16
0 16 10 0 9 -8 16 -17 17 -11 0 -13 3 -5 6 18 7 15 33 -5 35 -10 1 -25 2 -33
4 -8 1 -30 2 -47 3 -18 1 -33 6 -33 11 0 6 10 10 23 9 48 -4 79 1 75 13 -8 24
-122 38 -142 18 -17 -17 -79 -11 -106 10 -33 26 -60 26 -60 -1z m65 -38 c3 -5
1 -12 -5 -16 -5 -3 -10 1 -10 9 0 18 6 21 15 7z m408 -59 c23 -20 22 -38 -2
-38 -11 0 -17 4 -15 8 3 4 -8 20 -23 34 l-28 27 25 -8 c14 -4 33 -14 43 -23z
m-493 -16 c0 -3 -4 -8 -10 -11 -5 -3 -10 -1 -10 4 0 6 5 11 10 11 6 0 10 -2
10 -4z m157 -11 c-4 -8 -2 -17 3 -20 6 -4 10 -12 9 -18 0 -8 -2 -8 -6 1 -4 10
-8 10 -19 1 -8 -6 -12 -15 -9 -19 3 -5 1 -11 -5 -15 -14 -9 -12 19 3 34 10 10
9 11 -5 6 -13 -5 -18 -2 -18 12 0 11 3 23 7 26 13 14 45 7 40 -8z m170 -1 c-3
-3 -12 -4 -19 -1 -8 3 -5 6 6 6 11 1 17 -2 13 -5z m-62 -24 c3 -5 15 -10 26
-10 10 0 19 -7 19 -15 0 -8 5 -15 12 -15 6 0 8 -3 4 -7 -4 -5 -13 -1 -20 9 -6
9 -23 18 -36 20 -13 1 -25 9 -28 16 -4 14 14 16 23 2z m282 -44 c4 -5 -3 -5
-16 -1 -16 5 -21 4 -17 -4 4 -6 1 -11 -6 -11 -26 0 -68 -25 -68 -40 0 -12 -2
-12 -9 -1 -5 8 -18 11 -32 7 -18 -4 -16 -2 6 9 17 8 35 14 40 15 6 0 21 9 35
20 14 11 21 20 15 19 -14 -2 -75 24 -75 32 0 8 116 -33 127 -45z m-202 16 c-3
-3 -11 0 -18 7 -9 10 -8 11 6 5 10 -3 15 -9 12 -12z m243 9 c24 -15 10 -46
-23 -49 -22 -2 -26 0 -15 7 8 5 18 7 22 5 11 -7 10 4 -2 27 -11 20 -4 24 18
10z m-736 -31 l33 -20 -27 0 c-15 0 -31 6 -35 14 -4 8 -19 16 -33 19 -25 4
-25 4 2 6 15 0 42 -8 60 -19z m578 5 c0 -9 -9 -15 -22 -14 -17 1 -19 2 -5 6 9
2 17 9 17 14 0 5 2 9 5 9 3 0 5 -7 5 -15z m210 -5 c0 -5 -4 -10 -10 -10 -5 0
-10 5 -10 10 0 6 5 10 10 10 6 0 10 -4 10 -10z m-540 -3 c0 -2 -9 -12 -20 -22
-24 -21 -27 -14 -4 9 15 15 24 20 24 13z m-380 -27 c0 -5 -10 -10 -22 -9 -22
0 -22 1 -3 9 11 5 21 9 23 9 1 1 2 -3 2 -9z m914 4 c22 -8 20 -24 -2 -24 -10
0 -19 7 -19 15 0 17 0 17 21 9z m-417 -20 c-3 -3 -12 -4 -19 -1 -8 3 -5 6 6 6
11 1 17 -2 13 -5z m-560 -26 c-3 -8 -6 -5 -6 6 -1 11 2 17 5 13 3 -3 4 -12 1
-19z m463 -13 c14 -8 21 -14 15 -14 -5 0 -21 6 -35 14 -14 8 -20 14 -15 14 6
0 21 -6 35 -14z m220 -16 c14 -25 2 -24 -30 2 -14 11 -19 18 -12 14 6 -3 12
-1 12 5 0 15 18 3 30 -21z m-250 0 c25 -12 61 -23 80 -25 74 -9 85 -11 100
-17 8 -3 24 -8 35 -11 11 -3 -6 -4 -37 -2 -31 1 -55 0 -53 -4 2 -3 0 -12 -4
-19 -6 -9 -11 -10 -15 -2 -4 6 -1 11 6 11 7 1 -20 12 -61 26 -41 13 -82 31
-91 39 -9 8 -20 12 -23 8 -4 -3 -7 -1 -7 5 0 17 19 15 70 -9z m-450 1 c12 -8
9 -10 -12 -10 -16 0 -28 5 -28 10 0 13 20 13 40 0z m312 -28 c4 -4 -37 -7 -92
-7 -81 0 -97 2 -88 13 9 10 31 12 92 7 45 -4 84 -10 88 -13z m443 -2 c-2 -4
-18 -10 -34 -12 -17 -2 -28 -1 -25 4 3 4 16 8 30 8 17 0 23 4 18 12 -4 7 -3 8
5 4 6 -4 9 -11 6 -16z m-755 6 c0 -2 -7 -7 -16 -10 -8 -3 -12 -2 -9 4 6 10 25
14 25 6z m105 -6 c4 -6 -12 -10 -39 -10 -25 0 -46 5 -46 10 0 6 18 10 39 10
22 0 43 -4 46 -10z m702 -12 c-3 -8 -6 -5 -6 6 -1 11 2 17 5 13 3 -3 4 -12 1
-19z m473 -10 c0 -5 -4 -8 -10 -8 -5 0 -10 10 -10 23 0 18 2 19 10 7 5 -8 10
-18 10 -22z m-923 -14 c-3 -3 -12 -4 -19 -1 -8 3 -5 6 6 6 11 1 17 -2 13 -5z
m376 -8 c10 -8 14 -17 8 -20 -8 -5 -41 18 -41 30 0 8 15 3 33 -10z m157 3 c5
9 10 8 18 -2 9 -10 8 -18 -4 -33 -8 -10 -12 -13 -9 -6 5 9 -1 15 -14 19 -22 6
-26 14 -14 27 4 4 9 2 12 -5 2 -8 5 -8 11 0z m-595 -25 c41 -2 43 -4 18 -14
-26 -11 -60 -3 -67 17 -4 9 -2 11 7 6 6 -4 26 -8 42 -9z m294 -10 c-6 -8 -17
-14 -23 -14 -6 0 -3 7 6 14 10 7 14 17 10 21 -4 5 -1 5 6 1 10 -6 10 -11 1
-22z m236 16 c-3 -5 -13 -10 -21 -10 -8 0 -14 -5 -14 -12 0 -6 -3 -8 -7 -4 -5
4 1 14 11 22 23 16 40 19 31 4z m425 -10 c0 -5 -2 -10 -4 -10 -3 0 -8 5 -11
10 -3 6 -1 10 4 10 6 0 11 -4 11 -10z m-1030 -41 c0 -7 -6 -4 -15 7 -19 25
-19 40 0 20 8 -8 15 -20 15 -27z m872 12 c-2 -14 1 -22 8 -19 6 2 10 6 8 9 -7
12 25 39 46 38 19 -1 18 -2 -4 -8 -17 -5 -21 -9 -12 -15 7 -4 10 -12 6 -17 -3
-5 -10 -7 -15 -4 -5 4 -12 -1 -15 -9 -3 -9 -10 -14 -14 -11 -4 3 -11 -2 -14
-11 -8 -20 -45 -15 -60 8 -8 13 -5 23 14 43 29 31 56 29 52 -4z m-932 15 c0
-2 -7 -7 -16 -10 -8 -3 -12 -2 -9 4 6 10 25 14 25 6z m88 -27 c-3 -8 -7 -3
-11 10 -4 17 -3 21 5 13 5 -5 8 -16 6 -23z m502 -11 c0 -4 -9 -3 -20 4 -11 7
-20 19 -20 27 0 11 5 10 20 -4 11 -10 20 -22 20 -27z m-335 18 c18 -13 18 -14
-8 -9 -15 3 -30 9 -33 14 -8 14 20 10 41 -5z m-334 -13 c13 -16 12 -17 -3 -4
-17 13 -22 21 -14 21 2 0 10 -8 17 -17z m809 13 c0 -2 -8 -10 -17 -17 -16 -13
-17 -12 -4 4 13 16 21 21 21 13z m120 -6 c0 -5 -4 -10 -10 -10 -5 0 -10 5 -10
10 0 6 5 10 10 10 6 0 10 -4 10 -10z m-365 -28 c-3 -3 -11 0 -18 7 -9 10 -8
11 6 5 10 -3 15 -9 12 -12z m-520 -3 c11 -17 -1 -21 -15 -4 -8 9 -8 15 -2 15
6 0 14 -5 17 -11z m439 -38 c-2 -2 3 -13 13 -23 33 -37 -4 -17 -42 23 l-40 41
36 -19 c21 -10 35 -20 33 -22z m110 17 c-3 -4 -11 -5 -19 -1 -21 7 -19 12 4
10 11 0 18 -5 15 -9z m-192 -33 c6 -28 1 -35 -23 -35 -12 0 -17 5 -14 15 3 8
7 22 10 30 7 23 22 18 27 -10z m-199 -12 c22 -28 5 -31 -23 -3 -23 23 -24 27
-7 27 7 0 21 -11 30 -24z m-52 -30 c13 -16 12 -17 -3 -4 -17 13 -22 21 -14 21
2 0 10 -8 17 -17z m-91 3 c0 -3 -4 -8 -10 -11 -5 -3 -10 -1 -10 4 0 6 5 11 10
11 6 0 10 -2 10 -4z m140 -60 c0 -6 -7 -2 -15 8 -8 11 -15 25 -15 30 0 6 7 2
15 -8 8 -11 15 -25 15 -30z m900 20 c0 -2 -8 -10 -17 -17 -16 -13 -17 -12 -4
4 13 16 21 21 21 13z m-862 -51 c-3 -3 -9 2 -12 12 -6 14 -5 15 5 6 7 -7 10
-15 7 -18z m925 -16 c3 -10 -1 -20 -9 -23 -8 -3 -13 -1 -11 3 3 11 -8 12 -29
4 -9 -3 -23 2 -32 12 -9 10 -12 15 -5 11 6 -3 14 -3 17 2 10 17 64 10 69 -9z
m-263 -33 c0 -2 -9 -2 -20 1 -11 3 -20 9 -20 15 0 5 9 4 20 -2 11 -6 20 -12
20 -14z m81 -3 c-8 -15 -10 -15 -11 -2 0 17 10 32 18 25 2 -3 -1 -13 -7 -23z
m-691 7 c0 -5 -5 -10 -11 -10 -5 0 -7 5 -4 10 3 6 8 10 11 10 2 0 4 -4 4 -10z
m98 -21 c12 -19 11 -19 -8 -9 -11 6 -20 15 -20 20 0 17 15 11 28 -11z m476 15
c21 -8 21 -34 -1 -34 -9 0 -13 3 -10 7 4 3 -1 12 -11 19 -18 14 -5 18 22 8z
m256 -4 c-8 -5 -26 -9 -40 -9 -23 1 -23 2 5 9 43 11 52 11 35 0z m-176 -12
c-20 -32 -38 -45 -55 -41 -17 5 -16 8 13 29 34 26 54 31 42 12z m83 6 c-3 -3
-12 -4 -19 -1 -8 3 -5 6 6 6 11 1 17 -2 13 -5z m-212 -14 c-3 -5 1 -10 9 -10
9 0 16 -4 16 -10 0 -5 -6 -10 -14 -10 -8 0 -22 -7 -30 -16 -29 -28 -36 -10
-10 24 24 30 43 45 29 22z m-205 -80 c0 -5 -14 -7 -31 -5 -45 6 -49 15 -6 15
21 0 37 -4 37 -10z m530 6 c0 -6 -87 -56 -97 -56 -4 0 15 14 42 30 53 31 55
32 55 26z m-493 -12 c-3 -3 -12 -4 -19 -1 -8 3 -5 6 6 6 11 1 17 -2 13 -5z
m306 -11 c-7 -2 -19 -2 -25 0 -7 3 -2 5 12 5 14 0 19 -2 13 -5z m-80 -10 c-7
-2 -21 -2 -30 0 -10 3 -4 5 12 5 17 0 24 -2 18 -5z"/>
<path d="M1970 1140 c8 -5 20 -10 25 -10 6 0 3 5 -5 10 -8 5 -19 10 -25 10 -5
0 -3 -5 5 -10z"/>
<path d="M1480 1400 c11 -22 25 -40 30 -40 14 0 25 23 12 28 -7 2 -12 10 -12
17 0 13 -29 35 -45 35 -3 0 4 -18 15 -40z"/>
<path d="M1448 1343 c7 -3 16 -2 19 1 4 3 -2 6 -13 5 -11 0 -14 -3 -6 -6z"/>
</g>
</svg>
